bitdetector/simulation/modelsim/bitdetector.vcd
$date
	Tue May 29 09:57:54 2018
$end
$version
	ModelSim Version 10.1d
$end
$timescale
	1ps
$end
$scope module bitdetector_tb $end
$scope module dut $end
$var wire 1 ! i_ready_areg0_regout $end
$var wire 1 " o_valid_areg0_regout $end
$var wire 1 # o_sop_areg0_regout $end
$var wire 1 $ o_eop_areg0_regout $end
$var wire 1 % outp_areg0_regout $end
$var wire 1 & i_ready_a0_combout $end
$var wire 1 ' state_aS0_aregout $end
$var wire 1 ( Selector2_a0_combout $end
$var wire 1 ) o_sop_a0_combout $end
$var wire 1 * o_eop_a0_combout $end
$var wire 1 + inp_pre_aregout $end
$var wire 1 , outp_a0_combout $end
$var wire 1 - state_aS2_aregout $end
$var wire 1 . outp_a1_combout $end
$var wire 1 / state_a35_combout $end
$var wire 1 0 inp_pre_a0_combout $end
$var wire 1 1 state_aS1_aregout $end
$var wire 1 2 state_a36_combout $end
$var wire 1 3 state_a37_combout $end
$var wire 1 4 state_a38_combout $end
$var wire 1 5 state_a39_combout $end
$var wire 1 6 state_a40_combout $end
$var wire 1 7 i_ready $end
$var wire 1 8 o_valid $end
$var wire 1 9 o_sop $end
$var wire 1 : o_eop $end
$var wire 1 ; outp $end
$var wire 1 < reset_n_acombout $end
$var wire 1 = reset_n $end
$var wire 1 > o_ready_acombout $end
$var wire 1 ? o_ready $end
$var wire 1 @ clk_acombout $end
$var wire 1 A clk $end
$var wire 1 B i_valid_acombout $end
$var wire 1 C i_valid $end
$var wire 1 D i_sop_acombout $end
$var wire 1 E i_sop $end
$var wire 1 F i_eop_acombout $end
$var wire 1 G i_eop $end
$var wire 1 H inp_acombout $end
$var wire 1 I inp $end
$var wire 1 J outp_areg0feeder_combout $end
$upscope $end
$upscope $end
$enddefinitions $end
#0
$dumpvars
07
08
09
0:
0;
0@
1<
0>
0&
0!
0/
0'
0B
0(
0"
0D
0)
0#
0F
0*
0$
0H
03
15
06
01
02
04
0-
00
0+
0,
0.
0J
0%
0A
1=
0?
0C
0E
0G
0I
$end
#2500
1A
1@
1?
1>
16
1/
1&
#5000
0A
0@
#7500
1A
1@
11
1'
1!
17
#10000
0A
0@
#12500
1A
1@
1I
1C
1E
1H
1B
1D
10
1(
12
05
1)
14
06
#15000
0A
0@
#17500
1A
1@
0E
0D
02
15
0)
04
16
1+
1-
01
1#
1"
1,
14
05
19
18
1.
06
1J
#20000
0A
0@
#22500
1A
1@
0C
0B
0,
0(
0.
0J
1%
0#
1;
09
#25000
0A
0@
#27500
1A
1@
1C
1B
1,
1(
1.
1J
0%
0"
0;
08
#30000
0A
0@
#32500
1A
1@
0?
0>
0,
0(
0&
0.
0J
1%
1"
1;
18
#35000
0A
0@
#37500
1A
1@
1?
1>
1,
1(
1&
1.
1J
0%
0"
0!
0;
08
07
#40000
0A
0@
#42500
1A
1@
0I
0H
0.
00
0J
1%
1"
1!
1;
18
17
#45000
0A
0@
#47500
1A
1@
0%
0+
0,
0;
#50000
0A
0@
#52500
1A
1@
1I
1G
1H
1F
10
1*
#55000
0A
0@
#57500
1A
1@
0I
0C
0G
0H
0B
0F
00
0(
0*
1+
1$
13
1:
04
15
16
#60000
0A
0@
#62500
1A
1@
1I
1C
1H
1B
10
1(
0+
0-
11
0$
0"
03
0:
08
#65000
0A
0@
#67500
1A
1@
0C
0B
0(
1+
1"
18
